[gd_scene load_steps=4 format=3 uid="uid://h48acoxcoapj"]

[ext_resource type="Script" path="res://projectile.gd" id="1_pf28d"]

[sub_resource type="SphereShape3D" id="SphereShape3D_uvtbn"]
radius = 0.05

[sub_resource type="StandardMaterial3D" id="StandardMaterial3D_crgrt"]
albedo_color = Color(1, 0.643137, 0.294118, 1)

[node name="Projectile" type="RigidBody3D"]
collision_layer = 2
collision_mask = 2
input_ray_pickable = false
mass = 0.5
continuous_cd = true
lock_rotation = true
script = ExtResource("1_pf28d")

[node name="CollisionShape3D" type="CollisionShape3D" parent="."]
shape = SubResource("SphereShape3D_uvtbn")

[node name="CSGSphere3D" type="CSGSphere3D" parent="."]
radius = 0.05
radial_segments = 6
rings = 3
material = SubResource("StandardMaterial3D_crgrt")
